<svg id="logo_branca_" data-name="logo branca\" xmlns="http://www.w3.org/2000/svg" width="244.917" height="84.695" viewBox="0 0 244.917 84.695">
  <g id="Grupo_18" data-name="Grupo 18" transform="translate(52.641 28.148)">
    <g id="Grupo_17" data-name="Grupo 17">
      <path id="Caminho_41" data-name="Caminho 41" d="M531.442,107.682a14.636,14.636,0,0,1,0,20.084,13.688,13.688,0,0,1-19.529,0,14.636,14.636,0,0,1,0-20.084,13.69,13.69,0,0,1,19.529,0Zm-9.764-1.252a10.32,10.32,0,0,0-7.726,3.237,11.786,11.786,0,0,0,0,16.112,10.838,10.838,0,0,0,15.452,0,11.837,11.837,0,0,0,0-16.112A10.36,10.36,0,0,0,521.677,106.43Z" transform="translate(-507.925 -103.461)" fill="#f4f4f4"/>
      <path id="Caminho_42" data-name="Caminho 42" d="M563,131.334l-6.152-9.425H550.6v9.425h-2.843V104.222H557.9a8.839,8.839,0,0,1,6.242,15.094,8.661,8.661,0,0,1-4.077,2.324l6.313,9.693ZM550.6,107.083v11.982h7.3a5.991,5.991,0,0,0,0-11.982Z" transform="translate(-514.116 -103.56)" fill="#f4f4f4"/>
      <path id="Caminho_43" data-name="Caminho 43" d="M574.935,104.222h17.187v2.862H584.95v24.25h-2.844v-24.25h-7.172Z" transform="translate(-518.339 -103.56)" fill="#f4f4f4"/>
      <path id="Caminho_44" data-name="Caminho 44" d="M621.328,107.682a14.636,14.636,0,0,1,0,20.084,13.688,13.688,0,0,1-19.529,0,14.636,14.636,0,0,1,0-20.084,13.69,13.69,0,0,1,19.529,0Zm-9.764-1.252a10.319,10.319,0,0,0-7.725,3.237,11.786,11.786,0,0,0,0,16.112,10.838,10.838,0,0,0,15.452,0,11.834,11.834,0,0,0,0-16.112A10.359,10.359,0,0,0,611.563,106.43Z" transform="translate(-521.894 -103.461)" fill="#f4f4f4"/>
      <path id="Caminho_45" data-name="Caminho 45" d="M640.234,104.116l7.69,17.293,7.743-17.293h4.668l-12.411,27.791L635.53,104.116Z" transform="translate(-527.755 -103.543)" fill="#f4f4f4"/>
      <path id="Caminho_46" data-name="Caminho 46" d="M676.884,104.116v27.2h-4.291v-27.2Z" transform="translate(-533.515 -103.543)" fill="#f4f4f4"/>
      <path id="Caminho_47" data-name="Caminho 47" d="M685.367,104.1h19.047v4.31h-7.367v22.909h-4.31V108.4h-7.369Z" transform="translate(-535.5 -103.54)" fill="#f4f4f4"/>
      <path id="Caminho_48" data-name="Caminho 48" d="M714.362,126.186l-2.146,5.025h-4.649l11.821-27.774,11.839,27.774h-4.667l-2.146-5.025Zm8.352-4.006-3.327-7.8-3.326,7.8Z" transform="translate(-538.95 -103.438)" fill="#f4f4f4"/>
    </g>
  </g>
  <g id="Grupo_19" data-name="Grupo 19" transform="translate(73.888 64.664)">
    <path id="Caminho_49" data-name="Caminho 49" d="M533.466,146.9a1.925,1.925,0,0,1,.209-.016c.1,0,.183-.006.263-.006s.168,0,.264.006.169.009.22.016l2.209,5.264,2.188-5.264a1.948,1.948,0,0,1,.214-.016c.1,0,.185-.006.258-.006s.157,0,.253.006.169.009.22.016l.385,7.9c-.052.008-.11.014-.177.017s-.132.006-.2.006-.144,0-.214-.006a1.421,1.421,0,0,1-.171-.017l-.3-6.724-2.175,5.087a.575.575,0,0,1-.155.022h-.3a.552.552,0,0,1-.149-.022l-2.153-5.1-.319,6.735c-.052.008-.11.014-.176.017s-.132.006-.2.006-.145,0-.214-.006a1.441,1.441,0,0,1-.171-.017Z" transform="translate(-533.081 -146.705)" fill="#f4f4f4"/>
    <path id="Caminho_50" data-name="Caminho 50" d="M547.837,151.5a1.435,1.435,0,0,0-.341-1.06,1.381,1.381,0,0,0-1.01-.335,4.861,4.861,0,0,0-.8.061,4.974,4.974,0,0,0-.648.148,1,1,0,0,1-.094-.285,1.71,1.71,0,0,1-.039-.351,4.713,4.713,0,0,1,.7-.149,6.053,6.053,0,0,1,.857-.06,2.3,2.3,0,0,1,1.582.466,1.885,1.885,0,0,1,.516,1.467v3.7q-.384.077-.934.155a7.615,7.615,0,0,1-1.043.077,2.791,2.791,0,0,1-1.61-.407,1.488,1.488,0,0,1-.588-1.318,1.752,1.752,0,0,1,.17-.785,1.665,1.665,0,0,1,.472-.583,2.1,2.1,0,0,1,.725-.356,3.351,3.351,0,0,1,.928-.122c.263,0,.491.01.681.028s.347.035.472.049Zm0,.978c-.125-.014-.28-.031-.467-.049s-.365-.028-.533-.028a2.241,2.241,0,0,0-1.275.308,1,1,0,0,0-.451.878,1.09,1.09,0,0,0,.138.582.918.918,0,0,0,.357.335,1.486,1.486,0,0,0,.483.154,3.587,3.587,0,0,0,.527.039,5.812,5.812,0,0,0,.639-.033c.2-.022.391-.051.582-.088Z" transform="translate(-534.838 -147.108)" fill="#f4f4f4"/>
    <path id="Caminho_51" data-name="Caminho 51" d="M552.865,149.815h-.7a.949.949,0,0,1-.017-.132c0-.052-.005-.106-.005-.165s0-.117.005-.176a1,1,0,0,1,.017-.143h1.428v5.6a1.476,1.476,0,0,1-.181.017c-.078,0-.138.006-.182.006s-.1,0-.176-.006a1.543,1.543,0,0,1-.187-.017Zm-.362-1.988c-.007-.066-.013-.147-.016-.242s-.006-.176-.006-.242,0-.132.006-.22.009-.161.016-.22c.066-.007.146-.013.242-.016s.177-.006.242-.006.132,0,.219.006.161.009.22.016c.008.059.013.133.016.22s.006.161.006.22,0,.147-.006.242-.008.177-.016.242c-.059.007-.132.013-.22.016s-.161.006-.219.006-.147,0-.242-.006S552.568,147.834,552.5,147.827Z" transform="translate(-536.043 -146.705)" fill="#f4f4f4"/>
    <path id="Caminho_52" data-name="Caminho 52" d="M557.032,154.437a3.308,3.308,0,0,0,.627.171,4.054,4.054,0,0,0,.736.071,1.689,1.689,0,0,0,1.044-.291.873.873,0,0,0,.384-.72.94.94,0,0,0-.115-.489,1.041,1.041,0,0,0-.307-.324,1.79,1.79,0,0,0-.434-.214q-.242-.082-.494-.171-.275-.087-.545-.2a1.846,1.846,0,0,1-.477-.28,1.212,1.212,0,0,1-.462-1.017,1.363,1.363,0,0,1,.489-1.088,2.287,2.287,0,0,1,1.511-.417,4.378,4.378,0,0,1,.829.077,3.509,3.509,0,0,1,.621.165,4.6,4.6,0,0,1-.154.626,6,6,0,0,0-.588-.154,3.5,3.5,0,0,0-.741-.077,1.491,1.491,0,0,0-.951.237.772.772,0,0,0-.281.621.665.665,0,0,0,.094.357.829.829,0,0,0,.253.253,1.811,1.811,0,0,0,.362.181c.136.051.28.1.434.144q.3.1.6.214a2.26,2.26,0,0,1,.549.3,1.494,1.494,0,0,1,.407.473,1.455,1.455,0,0,1,.159.714,1.615,1.615,0,0,1-.159.72,1.586,1.586,0,0,1-.445.55,2.075,2.075,0,0,1-.682.346,2.972,2.972,0,0,1-.868.121,5.9,5.9,0,0,1-.939-.067,2.768,2.768,0,0,1-.665-.176A3.3,3.3,0,0,1,557.032,154.437Z" transform="translate(-536.771 -147.108)" fill="#f4f4f4"/>
    <path id="Caminho_53" data-name="Caminho 53" d="M568.6,146.7a1.509,1.509,0,0,1,.181-.017c.077,0,.138-.006.182-.006s.1,0,.176.006a1.554,1.554,0,0,1,.188.017v3.253a2.2,2.2,0,0,1,.664-.633,2.049,2.049,0,0,1,1.127-.28,2.687,2.687,0,0,1,.945.159,1.807,1.807,0,0,1,.731.5,2.423,2.423,0,0,1,.473.857,4,4,0,0,1,.17,1.242,3.135,3.135,0,0,1-.8,2.286,3.091,3.091,0,0,1-2.318.824,4.8,4.8,0,0,1-.956-.094,5.205,5.205,0,0,1-.758-.2Zm.726,7.405a2.754,2.754,0,0,0,.532.126,4.342,4.342,0,0,0,.6.039,2.477,2.477,0,0,0,.84-.143,1.911,1.911,0,0,0,.7-.439,2.158,2.158,0,0,0,.484-.753,2.957,2.957,0,0,0,.182-1.093,2.817,2.817,0,0,0-.379-1.571,1.363,1.363,0,0,0-1.225-.572,2.1,2.1,0,0,0-.572.088,1.6,1.6,0,0,0-.565.3,1.613,1.613,0,0,0-.429.556,1.967,1.967,0,0,0-.17.872Z" transform="translate(-538.6 -146.673)" fill="#f4f4f4"/>
    <path id="Caminho_54" data-name="Caminho 54" d="M577.783,152.514a2.275,2.275,0,0,0,.517,1.648,2.075,2.075,0,0,0,1.549.528,3.974,3.974,0,0,0,.775-.071,5.161,5.161,0,0,0,.7-.193,1.224,1.224,0,0,1,.088.3,3.133,3.133,0,0,1,.045.318,3.231,3.231,0,0,1-.747.22,5.35,5.35,0,0,1-.934.077,3.274,3.274,0,0,1-1.247-.215,2.241,2.241,0,0,1-.857-.6,2.445,2.445,0,0,1-.495-.917,4.071,4.071,0,0,1-.159-1.171,4.332,4.332,0,0,1,.148-1.154,2.818,2.818,0,0,1,.451-.945,2.1,2.1,0,0,1,.775-.637,2.557,2.557,0,0,1,1.132-.231,2.422,2.422,0,0,1,.978.187,1.987,1.987,0,0,1,.72.522,2.246,2.246,0,0,1,.44.8A3.34,3.34,0,0,1,581.8,152c0,.066,0,.15-.006.253s-.009.19-.016.264Zm3.3-.6a2.565,2.565,0,0,0-.088-.671,1.636,1.636,0,0,0-.274-.577,1.416,1.416,0,0,0-.483-.4,1.747,1.747,0,0,0-1.912.319,2.268,2.268,0,0,0-.516,1.329Z" transform="translate(-539.908 -147.108)" fill="#f4f4f4"/>
    <path id="Caminho_55" data-name="Caminho 55" d="M585.677,149.6c.059-.008.116-.013.171-.017s.108-.005.16-.005.114,0,.165.005.106.009.165.017q.022.2.033.472c.007.183.011.348.011.495a2.157,2.157,0,0,1,.253-.407,1.832,1.832,0,0,1,.362-.351,1.8,1.8,0,0,1,.479-.247,1.868,1.868,0,0,1,.61-.093,1.736,1.736,0,0,1,.549.077,1.25,1.25,0,0,1,.687.538,3.205,3.205,0,0,1,.214.417q.12-.175.274-.362a2.012,2.012,0,0,1,.352-.335,1.741,1.741,0,0,1,.455-.242,1.7,1.7,0,0,1,.577-.093,1.677,1.677,0,0,1,1.412.56,2.57,2.57,0,0,1,.434,1.6v3.571a1.5,1.5,0,0,1-.182.017c-.077,0-.137.006-.182.006s-.094,0-.175-.006a1.531,1.531,0,0,1-.188-.017v-3.318a2.38,2.38,0,0,0-.291-1.318.987.987,0,0,0-.874-.429,1.282,1.282,0,0,0-.616.143,1.318,1.318,0,0,0-.439.385,1.815,1.815,0,0,0-.269.565,2.5,2.5,0,0,0-.093.688v3.285a1.5,1.5,0,0,1-.181.017c-.077,0-.138.006-.182.006s-.1,0-.176-.006a1.55,1.55,0,0,1-.187-.017v-3.461a2.307,2.307,0,0,0-.268-1.252.875.875,0,0,0-.775-.407,1.2,1.2,0,0,0-.627.171,1.569,1.569,0,0,0-.494.477,2.431,2.431,0,0,0-.324.731,3.516,3.516,0,0,0-.116.928v2.813a1.5,1.5,0,0,1-.181.017c-.077,0-.138.006-.182.006s-.1,0-.176-.006a1.553,1.553,0,0,1-.188-.017Z" transform="translate(-541.255 -147.108)" fill="#f4f4f4"/>
    <path id="Caminho_56" data-name="Caminho 56" d="M602.422,152.514a2.279,2.279,0,0,0,.516,1.648,2.077,2.077,0,0,0,1.55.528,3.979,3.979,0,0,0,.775-.071,5.154,5.154,0,0,0,.7-.193,1.3,1.3,0,0,1,.088.3,3.1,3.1,0,0,1,.044.318,3.224,3.224,0,0,1-.747.22,5.358,5.358,0,0,1-.934.077,3.283,3.283,0,0,1-1.247-.215,2.245,2.245,0,0,1-.856-.6,2.443,2.443,0,0,1-.495-.917,4.069,4.069,0,0,1-.16-1.171,4.327,4.327,0,0,1,.149-1.154,2.83,2.83,0,0,1,.45-.945,2.1,2.1,0,0,1,.775-.637,2.552,2.552,0,0,1,1.131-.231,2.424,2.424,0,0,1,.979.187,1.987,1.987,0,0,1,.72.522,2.244,2.244,0,0,1,.439.8,3.336,3.336,0,0,1,.149,1.016c0,.066,0,.15-.006.253s-.009.19-.016.264Zm3.3-.6a2.6,2.6,0,0,0-.088-.671,1.666,1.666,0,0,0-.274-.577,1.422,1.422,0,0,0-.484-.4,1.747,1.747,0,0,0-1.912.319,2.272,2.272,0,0,0-.516,1.329Z" transform="translate(-543.737 -147.108)" fill="#f4f4f4"/>
    <path id="Caminho_57" data-name="Caminho 57" d="M610.1,154.437a3.311,3.311,0,0,0,.627.171,4.056,4.056,0,0,0,.736.071,1.689,1.689,0,0,0,1.044-.291.873.873,0,0,0,.384-.72.94.94,0,0,0-.115-.489,1.04,1.04,0,0,0-.307-.324,1.793,1.793,0,0,0-.434-.214c-.161-.055-.327-.111-.494-.171q-.275-.087-.545-.2a1.846,1.846,0,0,1-.477-.28,1.212,1.212,0,0,1-.462-1.017,1.363,1.363,0,0,1,.489-1.088,2.288,2.288,0,0,1,1.511-.417,4.379,4.379,0,0,1,.829.077,3.512,3.512,0,0,1,.621.165,4.583,4.583,0,0,1-.154.626,5.992,5.992,0,0,0-.588-.154,3.5,3.5,0,0,0-.741-.077,1.491,1.491,0,0,0-.951.237.772.772,0,0,0-.281.621.665.665,0,0,0,.094.357.831.831,0,0,0,.253.253,1.817,1.817,0,0,0,.362.181c.135.051.28.1.434.144q.3.1.6.214a2.264,2.264,0,0,1,.549.3,1.5,1.5,0,0,1,.407.473,1.454,1.454,0,0,1,.159.714,1.614,1.614,0,0,1-.159.72,1.587,1.587,0,0,1-.445.55,2.075,2.075,0,0,1-.682.346,2.973,2.973,0,0,1-.868.121,5.9,5.9,0,0,1-.939-.067,2.769,2.769,0,0,1-.665-.176A3.257,3.257,0,0,1,610.1,154.437Z" transform="translate(-545.017 -147.108)" fill="#f4f4f4"/>
    <path id="Caminho_58" data-name="Caminho 58" d="M617.423,149.924h-.956a1.013,1.013,0,0,1-.017-.143c0-.058,0-.117,0-.176s0-.113,0-.165a.964.964,0,0,1,.017-.132h.956v-1.055l.681-.671h.044v1.726h1.517a1.1,1.1,0,0,1,.016.132c0,.052.006.106.006.165s0,.117-.006.176a1.151,1.151,0,0,1-.016.143h-1.517v3.648a1.071,1.071,0,0,0,.072.434.623.623,0,0,0,.187.247.607.607,0,0,0,.263.115,1.631,1.631,0,0,0,.3.028,2.055,2.055,0,0,0,.671-.1,3.892,3.892,0,0,1,.11.615,3.154,3.154,0,0,1-.923.122,1.5,1.5,0,0,1-1.016-.336,1.368,1.368,0,0,1-.39-1.093Z" transform="translate(-546.036 -146.815)" fill="#f4f4f4"/>
    <path id="Caminho_59" data-name="Caminho 59" d="M625.84,151.5a1.431,1.431,0,0,0-.341-1.06,1.381,1.381,0,0,0-1.01-.335,4.878,4.878,0,0,0-.8.061,4.974,4.974,0,0,0-.648.148,1,1,0,0,1-.094-.285,1.763,1.763,0,0,1-.038-.351,4.692,4.692,0,0,1,.7-.149,6.064,6.064,0,0,1,.857-.06,2.307,2.307,0,0,1,1.583.466,1.887,1.887,0,0,1,.516,1.467v3.7q-.385.077-.934.155a7.64,7.64,0,0,1-1.044.077,2.792,2.792,0,0,1-1.61-.407,1.489,1.489,0,0,1-.588-1.318,1.752,1.752,0,0,1,.17-.785,1.666,1.666,0,0,1,.472-.583,2.1,2.1,0,0,1,.725-.356,3.349,3.349,0,0,1,.928-.122c.264,0,.491.01.682.028s.348.035.472.049Zm0,.978c-.124-.014-.28-.031-.467-.049s-.364-.028-.533-.028a2.242,2.242,0,0,0-1.275.308,1,1,0,0,0-.45.878,1.088,1.088,0,0,0,.137.582.919.919,0,0,0,.357.335,1.5,1.5,0,0,0,.483.154,3.6,3.6,0,0,0,.528.039,5.805,5.805,0,0,0,.638-.033c.2-.022.392-.051.582-.088Z" transform="translate(-546.96 -147.108)" fill="#f4f4f4"/>
    <path id="Caminho_60" data-name="Caminho 60" d="M630.6,149.623c.059-.008.116-.013.171-.017s.108-.005.16-.005.114,0,.165.005.106.009.165.017q.022.2.033.467c.007.179.011.342.011.489a2.013,2.013,0,0,1,.615-.687,1.768,1.768,0,0,1,1.045-.28h.115a.943.943,0,0,1,.138.011,2.012,2.012,0,0,1,.033.351,1.72,1.72,0,0,1-.033.34,1.323,1.323,0,0,0-.138-.011h-.1a1.577,1.577,0,0,0-1.2.473,2.235,2.235,0,0,0-.451,1.571v2.878a1.5,1.5,0,0,1-.181.017c-.077,0-.138.006-.181.006s-.1,0-.176-.006a1.554,1.554,0,0,1-.187-.017Z" transform="translate(-548.236 -147.128)" fill="#f4f4f4"/>
    <path id="Caminho_61" data-name="Caminho 61" d="M635.887,156.083a3.246,3.246,0,0,1-.033-.461,3.342,3.342,0,0,1,.033-.473,3.41,3.41,0,0,1,.462-.032,3.489,3.489,0,0,1,.473.032,3.407,3.407,0,0,1,.032.462,3.461,3.461,0,0,1-.032.472,3.158,3.158,0,0,1-.462.034A3.229,3.229,0,0,1,635.887,156.083Z" transform="translate(-549.052 -147.985)" fill="#f4f4f4"/>
    <path id="Caminho_62" data-name="Caminho 62" d="M644.747,146.9a1.925,1.925,0,0,1,.209-.016c.1,0,.183-.006.263-.006s.168,0,.264.006.169.009.219.016l2.209,5.264L650.1,146.9a1.948,1.948,0,0,1,.214-.016c.1,0,.185-.006.258-.006s.157,0,.253.006.169.009.22.016l.385,7.9c-.051.008-.11.014-.176.017s-.132.006-.2.006-.144,0-.214-.006a1.422,1.422,0,0,1-.171-.017l-.3-6.724-2.176,5.087a.573.573,0,0,1-.154.022h-.3a.553.553,0,0,1-.149-.022l-2.153-5.1-.319,6.735c-.051.008-.11.014-.176.017s-.132.006-.2.006-.144,0-.214-.006a1.457,1.457,0,0,1-.171-.017Z" transform="translate(-550.375 -146.705)" fill="#f4f4f4"/>
    <path id="Caminho_63" data-name="Caminho 63" d="M659.117,151.5a1.435,1.435,0,0,0-.34-1.06,1.384,1.384,0,0,0-1.011-.335,4.877,4.877,0,0,0-.8.061,4.972,4.972,0,0,0-.648.148,1,1,0,0,1-.094-.285,1.759,1.759,0,0,1-.038-.351,4.687,4.687,0,0,1,.7-.149,6.041,6.041,0,0,1,.856-.06,2.306,2.306,0,0,1,1.583.466,1.888,1.888,0,0,1,.516,1.467v3.7q-.385.077-.934.155a7.629,7.629,0,0,1-1.044.077,2.793,2.793,0,0,1-1.61-.407,1.488,1.488,0,0,1-.587-1.318,1.752,1.752,0,0,1,.17-.785,1.666,1.666,0,0,1,.472-.583,2.105,2.105,0,0,1,.726-.356,3.35,3.35,0,0,1,.928-.122c.263,0,.491.01.681.028s.348.035.472.049Zm0,.978c-.124-.014-.28-.031-.467-.049s-.364-.028-.533-.028a2.243,2.243,0,0,0-1.274.308,1,1,0,0,0-.45.878,1.089,1.089,0,0,0,.137.582.916.916,0,0,0,.358.335,1.479,1.479,0,0,0,.483.154,3.574,3.574,0,0,0,.527.039,5.805,5.805,0,0,0,.638-.033c.2-.022.392-.051.582-.088Z" transform="translate(-552.131 -147.108)" fill="#f4f4f4"/>
    <path id="Caminho_64" data-name="Caminho 64" d="M664.146,149.815h-.7a1.123,1.123,0,0,1-.017-.132c0-.052-.005-.106-.005-.165s0-.117.005-.176a1.161,1.161,0,0,1,.017-.143h1.428v5.6a1.478,1.478,0,0,1-.181.017c-.078,0-.138.006-.182.006s-.1,0-.176-.006a1.511,1.511,0,0,1-.187-.017Zm-.363-1.988c-.007-.066-.013-.147-.016-.242s-.005-.176-.005-.242,0-.132.005-.22.009-.161.016-.22c.066-.007.146-.013.241-.016s.177-.006.242-.006.132,0,.22.006.161.009.22.016q.011.089.016.22c0,.088.006.161.006.22s0,.147-.006.242-.008.177-.016.242c-.058.007-.132.013-.22.016s-.161.006-.22.006-.147,0-.242-.006S663.849,147.834,663.783,147.827Z" transform="translate(-553.336 -146.705)" fill="#f4f4f4"/>
    <path id="Caminho_65" data-name="Caminho 65" d="M668.313,154.437a3.308,3.308,0,0,0,.627.171,4.055,4.055,0,0,0,.736.071,1.69,1.69,0,0,0,1.044-.291.873.873,0,0,0,.384-.72.941.941,0,0,0-.115-.489,1.043,1.043,0,0,0-.307-.324,1.8,1.8,0,0,0-.434-.214q-.242-.082-.494-.171-.275-.087-.545-.2a1.845,1.845,0,0,1-.477-.28,1.218,1.218,0,0,1-.462-1.017,1.363,1.363,0,0,1,.489-1.088,2.287,2.287,0,0,1,1.511-.417,4.378,4.378,0,0,1,.829.077,3.511,3.511,0,0,1,.621.165,4.6,4.6,0,0,1-.154.626,6,6,0,0,0-.588-.154,3.5,3.5,0,0,0-.742-.077,1.491,1.491,0,0,0-.951.237.771.771,0,0,0-.28.621.664.664,0,0,0,.093.357.829.829,0,0,0,.253.253,1.812,1.812,0,0,0,.362.181c.136.051.279.1.434.144q.3.1.6.214a2.246,2.246,0,0,1,.549.3,1.494,1.494,0,0,1,.407.473,1.455,1.455,0,0,1,.16.714,1.616,1.616,0,0,1-.16.72,1.586,1.586,0,0,1-.445.55,2.075,2.075,0,0,1-.682.346,2.972,2.972,0,0,1-.868.121,5.9,5.9,0,0,1-.939-.067,2.771,2.771,0,0,1-.665-.176A3.316,3.316,0,0,1,668.313,154.437Z" transform="translate(-554.064 -147.108)" fill="#f4f4f4"/>
    <path id="Caminho_66" data-name="Caminho 66" d="M679.07,149.623a1.751,1.751,0,0,1,.188-.017q.12-.005.231-.005c.058,0,.132,0,.22.005a1.8,1.8,0,0,1,.2.017l1.77,4.845,1.8-4.845a1.633,1.633,0,0,1,.175-.017q.11-.005.2-.005c.059,0,.125,0,.2.005a1.682,1.682,0,0,1,.176.017l-2.231,5.6a1.668,1.668,0,0,1-.34.034,1.846,1.846,0,0,1-.352-.034Z" transform="translate(-555.768 -147.128)" fill="#f4f4f4"/>
    <path id="Caminho_67" data-name="Caminho 67" d="M688.031,149.815h-.7a.923.923,0,0,1-.017-.132c0-.052-.005-.106-.005-.165s0-.117.005-.176a.974.974,0,0,1,.017-.143h1.428v5.6a1.494,1.494,0,0,1-.181.017c-.077,0-.137.006-.181.006s-.1,0-.176-.006a1.528,1.528,0,0,1-.187-.017Zm-.362-1.988c-.008-.066-.014-.147-.017-.242s-.005-.176-.005-.242,0-.132.005-.22.009-.161.017-.22c.066-.007.146-.013.242-.016s.176-.006.242-.006.132,0,.22.006.161.009.22.016c.008.059.013.133.016.22s.006.161.006.22,0,.147-.006.242-.008.177-.016.242c-.059.007-.133.013-.22.016s-.161.006-.22.006-.146,0-.242-.006S687.734,147.834,687.668,147.827Z" transform="translate(-557.048 -146.705)" fill="#f4f4f4"/>
    <path id="Caminho_68" data-name="Caminho 68" d="M696.135,146.7a1.541,1.541,0,0,1,.187-.017c.08,0,.139-.006.176-.006s.1,0,.182.006a1.523,1.523,0,0,1,.182.017v7.943a5.5,5.5,0,0,1-.846.187,7.086,7.086,0,0,1-1.055.077,4.3,4.3,0,0,1-1.132-.144,2.3,2.3,0,0,1-.912-.472,2.257,2.257,0,0,1-.61-.868,3.45,3.45,0,0,1-.226-1.329,3.889,3.889,0,0,1,.2-1.291,2.678,2.678,0,0,1,.56-.955,2.417,2.417,0,0,1,.874-.6,2.942,2.942,0,0,1,1.126-.209,4.366,4.366,0,0,1,.72.06,3.669,3.669,0,0,1,.577.138Zm0,3.219a3.464,3.464,0,0,0-.561-.159,3.371,3.371,0,0,0-.7-.072,2.125,2.125,0,0,0-.9.176,1.756,1.756,0,0,0-.632.489,2.128,2.128,0,0,0-.379.753,3.523,3.523,0,0,0-.126.967,2.22,2.22,0,0,0,.544,1.665,2.139,2.139,0,0,0,1.544.522,6.042,6.042,0,0,0,.692-.038,3.257,3.257,0,0,0,.517-.094Z" transform="translate(-557.79 -146.673)" fill="#f4f4f4"/>
    <path id="Caminho_69" data-name="Caminho 69" d="M704.155,151.5a1.435,1.435,0,0,0-.34-1.06,1.384,1.384,0,0,0-1.011-.335,4.878,4.878,0,0,0-.8.061,4.972,4.972,0,0,0-.648.148,1.006,1.006,0,0,1-.094-.285,1.75,1.75,0,0,1-.038-.351,4.686,4.686,0,0,1,.7-.149,6.04,6.04,0,0,1,.856-.06,2.306,2.306,0,0,1,1.583.466,1.888,1.888,0,0,1,.516,1.467v3.7q-.385.077-.934.155a7.63,7.63,0,0,1-1.044.077,2.793,2.793,0,0,1-1.61-.407,1.49,1.49,0,0,1-.587-1.318,1.753,1.753,0,0,1,.17-.785,1.668,1.668,0,0,1,.472-.583,2.1,2.1,0,0,1,.725-.356,3.351,3.351,0,0,1,.928-.122c.263,0,.491.01.682.028s.348.035.472.049Zm0,.978c-.124-.014-.28-.031-.467-.049s-.364-.028-.533-.028a2.244,2.244,0,0,0-1.275.308,1,1,0,0,0-.45.878,1.09,1.09,0,0,0,.137.582.914.914,0,0,0,.358.335,1.479,1.479,0,0,0,.483.154,3.576,3.576,0,0,0,.527.039,5.807,5.807,0,0,0,.638-.033c.2-.022.392-.051.582-.088Z" transform="translate(-559.131 -147.108)" fill="#f4f4f4"/>
    <path id="Caminho_70" data-name="Caminho 70" d="M708.543,156.083a3.273,3.273,0,0,1-.033-.461,3.369,3.369,0,0,1,.033-.473,3.4,3.4,0,0,1,.462-.032,3.469,3.469,0,0,1,.472.032,3.294,3.294,0,0,1,.033.462,3.348,3.348,0,0,1-.033.472,3.139,3.139,0,0,1-.461.034A3.227,3.227,0,0,1,708.543,156.083Z" transform="translate(-560.343 -147.985)" fill="#f4f4f4"/>
  </g>
  <g id="Grupo_24" data-name="Grupo 24" transform="translate(0 0)">
    <g id="Grupo_21" data-name="Grupo 21" transform="translate(0 27.583)">
      <g id="Grupo_20" data-name="Grupo 20">
        <path id="Caminho_71" data-name="Caminho 71" d="M474.555,159.881a9.548,9.548,0,0,1-8.9-6.226l-.387-1.291a13.614,13.614,0,0,0-11.592-11.654l-.879-.118v-.064a9.546,9.546,0,0,1-7.2-9.192,9.437,9.437,0,0,1,8.588-9.44,13.715,13.715,0,0,0,10.965-10.82,9.477,9.477,0,1,1,10.293,10.616,9.813,9.813,0,0,0,.27,19.291l.231.038c.129.019.259.041.388.066l1.227.318a9.482,9.482,0,0,1-3,18.476Zm-7.306-8.03.035.15a7.448,7.448,0,1,0,8.136-9l-1.853-.474a11.958,11.958,0,0,1-8.032-11.205,11.837,11.837,0,0,1,9.623-11.638,7.56,7.56,0,0,0,4.89-2.4,7.45,7.45,0,1,0-12.893-5.894,15.729,15.729,0,0,1-12.7,12.521,7.447,7.447,0,0,0-.485,14.785l.863.15A15.663,15.663,0,0,1,467.249,151.851Z" transform="translate(-445.598 -102.769)" fill="#f4f4f4"/>
      </g>
    </g>
    <g id="Grupo_23" data-name="Grupo 23" transform="translate(8.293)">
      <g id="Grupo_22" data-name="Grupo 22">
        <path id="Caminho_72" data-name="Caminho 72" d="M464.9,127.224a9.483,9.483,0,0,1-3.006-18.477l1.093-.292q.286-.058.579-.1l.176-.03a9.809,9.809,0,0,0,.178-19.3,9.481,9.481,0,1,1,10.4-10.53,13.711,13.711,0,0,0,11.031,10.755,9.416,9.416,0,0,1,8.51,9.431,9.549,9.549,0,0,1-7.2,9.193v.056l-.878.127a13.614,13.614,0,0,0-11.592,11.653L473.8,121A9.551,9.551,0,0,1,464.9,127.224Zm.988-17.355-1.855.473a7.45,7.45,0,1,0,8.137,9l.04-.18a15.663,15.663,0,0,1,12.413-12.976v-.013l.862-.139a7.445,7.445,0,0,0-.406-14.775A15.724,15.724,0,0,1,472.31,78.8a7.449,7.449,0,1,0-8.106,8.21,11.839,11.839,0,0,1,1.684,22.856Z" transform="translate(-455.417 -70.111)" fill="#f4f4f4"/>
      </g>
    </g>
  </g>
</svg>
